<?xml version="1.0" encoding="UTF-8"?>
<!DOCTYPE svg PUBLIC "-//W3C//DTD SVG 1.1//EN" "http://www.w3.org/Graphics/SVG/1.1/DTD/svg11.dtd">
<svg width="160mm" height="90mm" viewBox="0 0 16000 9000" version="1.1" xmlns="http://www.w3.org/2000/svg" xmlns:xlink="http://www.w3.org/1999/xlink" stroke-width="28.222" stroke-linejoin="round" xml:space="preserve">
 <path fill="rgb(255,255,255)" stroke="none" d="M 7999,8974 L 0,8974 0,0 15997,0 15997,8974 7999,8974 Z"/>
 <path fill="none" stroke="rgb(179,179,179)" stroke-linejoin="round" d="M 6669,8144 L 2253,8144 2253,1479 11084,1479 11084,8144 6669,8144 Z"/>
 <path fill="none" stroke="rgb(179,179,179)" stroke-linejoin="round" d="M 11084,8143 L 2253,8143"/>
 <path fill="none" stroke="rgb(179,179,179)" stroke-linejoin="round" d="M 11084,7476 L 2253,7476"/>
 <path fill="none" stroke="rgb(179,179,179)" stroke-linejoin="round" d="M 11084,6809 L 2253,6809"/>
 <path fill="none" stroke="rgb(179,179,179)" stroke-linejoin="round" d="M 11084,6143 L 2253,6143"/>
 <path fill="none" stroke="rgb(179,179,179)" stroke-linejoin="round" d="M 11084,5476 L 2253,5476"/>
 <path fill="none" stroke="rgb(179,179,179)" stroke-linejoin="round" d="M 11084,4810 L 2253,4810"/>
 <path fill="none" stroke="rgb(179,179,179)" stroke-linejoin="round" d="M 11084,4144 L 2253,4144"/>
 <path fill="none" stroke="rgb(179,179,179)" stroke-linejoin="round" d="M 11084,3477 L 2253,3477"/>
 <path fill="none" stroke="rgb(179,179,179)" stroke-linejoin="round" d="M 11084,2811 L 2253,2811"/>
 <path fill="none" stroke="rgb(179,179,179)" stroke-linejoin="round" d="M 11084,2144 L 2253,2144"/>
 <path fill="none" stroke="rgb(179,179,179)" stroke-linejoin="round" d="M 11084,1478 L 2253,1478"/>
 <path fill="none" stroke="rgb(179,179,179)" stroke-linejoin="round" d="M 2253,8293 L 2253,8143"/>
 <path fill="none" stroke="rgb(179,179,179)" stroke-linejoin="round" d="M 2253,8293 L 2253,8143"/>
 <path fill="none" stroke="rgb(179,179,179)" stroke-linejoin="round" d="M 3725,8293 L 3725,8143"/>
 <path fill="none" stroke="rgb(179,179,179)" stroke-linejoin="round" d="M 3725,8293 L 3725,8143"/>
 <path fill="none" stroke="rgb(179,179,179)" stroke-linejoin="round" d="M 5197,8293 L 5197,8143"/>
 <path fill="none" stroke="rgb(179,179,179)" stroke-linejoin="round" d="M 5197,8293 L 5197,8143"/>
 <path fill="none" stroke="rgb(179,179,179)" stroke-linejoin="round" d="M 6669,8293 L 6669,8143"/>
 <path fill="none" stroke="rgb(179,179,179)" stroke-linejoin="round" d="M 6669,8293 L 6669,8143"/>
 <path fill="none" stroke="rgb(179,179,179)" stroke-linejoin="round" d="M 8140,8293 L 8140,8143"/>
 <path fill="none" stroke="rgb(179,179,179)" stroke-linejoin="round" d="M 8140,8293 L 8140,8143"/>
 <path fill="none" stroke="rgb(179,179,179)" stroke-linejoin="round" d="M 9612,8293 L 9612,8143"/>
 <path fill="none" stroke="rgb(179,179,179)" stroke-linejoin="round" d="M 9612,8293 L 9612,8143"/>
 <path fill="none" stroke="rgb(179,179,179)" stroke-linejoin="round" d="M 11084,8293 L 11084,8143"/>
 <path fill="none" stroke="rgb(179,179,179)" stroke-linejoin="round" d="M 11084,8293 L 11084,8143"/>
 <path fill="none" stroke="rgb(179,179,179)" stroke-linejoin="round" d="M 2253,8143 L 11084,8143"/>
 <path fill="none" stroke="rgb(179,179,179)" stroke-linejoin="round" d="M 2103,8143 L 2253,8143"/>
 <path fill="none" stroke="rgb(179,179,179)" stroke-linejoin="round" d="M 2103,8143 L 2253,8143"/>
 <path fill="none" stroke="rgb(179,179,179)" stroke-linejoin="round" d="M 2103,7476 L 2253,7476"/>
 <path fill="none" stroke="rgb(179,179,179)" stroke-linejoin="round" d="M 2103,7476 L 2253,7476"/>
 <path fill="none" stroke="rgb(179,179,179)" stroke-linejoin="round" d="M 2103,6809 L 2253,6809"/>
 <path fill="none" stroke="rgb(179,179,179)" stroke-linejoin="round" d="M 2103,6809 L 2253,6809"/>
 <path fill="none" stroke="rgb(179,179,179)" stroke-linejoin="round" d="M 2103,6143 L 2253,6143"/>
 <path fill="none" stroke="rgb(179,179,179)" stroke-linejoin="round" d="M 2103,6143 L 2253,6143"/>
 <path fill="none" stroke="rgb(179,179,179)" stroke-linejoin="round" d="M 2103,5476 L 2253,5476"/>
 <path fill="none" stroke="rgb(179,179,179)" stroke-linejoin="round" d="M 2103,5476 L 2253,5476"/>
 <path fill="none" stroke="rgb(179,179,179)" stroke-linejoin="round" d="M 2103,4810 L 2253,4810"/>
 <path fill="none" stroke="rgb(179,179,179)" stroke-linejoin="round" d="M 2103,4810 L 2253,4810"/>
 <path fill="none" stroke="rgb(179,179,179)" stroke-linejoin="round" d="M 2103,4144 L 2253,4144"/>
 <path fill="none" stroke="rgb(179,179,179)" stroke-linejoin="round" d="M 2103,4144 L 2253,4144"/>
 <path fill="none" stroke="rgb(179,179,179)" stroke-linejoin="round" d="M 2103,3477 L 2253,3477"/>
 <path fill="none" stroke="rgb(179,179,179)" stroke-linejoin="round" d="M 2103,3477 L 2253,3477"/>
 <path fill="none" stroke="rgb(179,179,179)" stroke-linejoin="round" d="M 2103,2811 L 2253,2811"/>
 <path fill="none" stroke="rgb(179,179,179)" stroke-linejoin="round" d="M 2103,2811 L 2253,2811"/>
 <path fill="none" stroke="rgb(179,179,179)" stroke-linejoin="round" d="M 2103,2144 L 2253,2144"/>
 <path fill="none" stroke="rgb(179,179,179)" stroke-linejoin="round" d="M 2103,2144 L 2253,2144"/>
 <path fill="none" stroke="rgb(179,179,179)" stroke-linejoin="round" d="M 2103,1478 L 2253,1478"/>
 <path fill="none" stroke="rgb(179,179,179)" stroke-linejoin="round" d="M 2103,1478 L 2253,1478"/>
 <path fill="none" stroke="rgb(179,179,179)" stroke-linejoin="round" d="M 2253,8143 L 2253,1478"/>
 <path fill="rgb(120,3,115)" stroke="none" d="M 3600,7395 L 3725,7645 3850,7395 3600,7395 Z"/>
 <path fill="none" stroke="rgb(120,3,115)" stroke-linejoin="round" d="M 3600,7395 L 3725,7645 3850,7395 3600,7395 Z"/>
 <path fill="rgb(120,3,115)" stroke="none" d="M 5072,6003 L 5197,6253 5322,6003 5072,6003 Z"/>
 <path fill="none" stroke="rgb(120,3,115)" stroke-linejoin="round" d="M 5072,6003 L 5197,6253 5322,6003 5072,6003 Z"/>
 <path fill="rgb(120,3,115)" stroke="none" d="M 6544,4661 L 6669,4911 6794,4661 6544,4661 Z"/>
 <path fill="none" stroke="rgb(120,3,115)" stroke-linejoin="round" d="M 6544,4661 L 6669,4911 6794,4661 6544,4661 Z"/>
 <path fill="rgb(120,3,115)" stroke="none" d="M 8015,3382 L 8140,3632 8265,3382 8015,3382 Z"/>
 <path fill="none" stroke="rgb(120,3,115)" stroke-linejoin="round" d="M 8015,3382 L 8140,3632 8265,3382 8015,3382 Z"/>
 <path fill="rgb(120,3,115)" stroke="none" d="M 9487,1898 L 9612,2148 9737,1898 9487,1898 Z"/>
 <path fill="none" stroke="rgb(120,3,115)" stroke-linejoin="round" d="M 9487,1898 L 9612,2148 9737,1898 9487,1898 Z"/>
 <path fill="rgb(255,66,14)" stroke="none" d="M 3600,7489 L 3725,7614 3850,7489 3725,7364 3600,7489 Z"/>
 <path fill="none" stroke="rgb(255,66,14)" stroke-linejoin="round" d="M 3600,7489 L 3725,7614 3850,7489 3725,7364 3600,7489 Z"/>
 <path fill="rgb(255,66,14)" stroke="none" d="M 5072,6103 L 5197,6228 5322,6103 5197,5978 5072,6103 Z"/>
 <path fill="none" stroke="rgb(255,66,14)" stroke-linejoin="round" d="M 5072,6103 L 5197,6228 5322,6103 5197,5978 5072,6103 Z"/>
 <path fill="rgb(255,66,14)" stroke="none" d="M 6544,4743 L 6669,4868 6794,4743 6669,4618 6544,4743 Z"/>
 <path fill="none" stroke="rgb(255,66,14)" stroke-linejoin="round" d="M 6544,4743 L 6669,4868 6794,4743 6669,4618 6544,4743 Z"/>
 <path fill="rgb(255,66,14)" stroke="none" d="M 8015,3371 L 8140,3496 8265,3371 8140,3246 8015,3371 Z"/>
 <path fill="none" stroke="rgb(255,66,14)" stroke-linejoin="round" d="M 8015,3371 L 8140,3496 8265,3371 8140,3246 8015,3371 Z"/>
 <path fill="rgb(255,66,14)" stroke="none" d="M 9487,1811 L 9612,1936 9737,1811 9612,1686 9487,1811 Z"/>
 <path fill="none" stroke="rgb(255,66,14)" stroke-linejoin="round" d="M 9487,1811 L 9612,1936 9737,1811 9612,1686 9487,1811 Z"/>
 <path fill="rgb(0,69,134)" stroke="none" d="M 3600,7458 L 3600,7708 3850,7708 3850,7458 3600,7458 Z"/>
 <path fill="none" stroke="rgb(0,69,134)" stroke-linejoin="round" d="M 3600,7458 L 3600,7708 3850,7708 3850,7458 3600,7458 Z"/>
 <path fill="rgb(0,69,134)" stroke="none" d="M 5072,5964 L 5072,6214 5322,6214 5322,5964 5072,5964 Z"/>
 <path fill="none" stroke="rgb(0,69,134)" stroke-linejoin="round" d="M 5072,5964 L 5072,6214 5322,6214 5322,5964 5072,5964 Z"/>
 <path fill="rgb(0,69,134)" stroke="none" d="M 6544,5044 L 6544,5294 6794,5294 6794,5044 6544,5044 Z"/>
 <path fill="none" stroke="rgb(0,69,134)" stroke-linejoin="round" d="M 6544,5044 L 6544,5294 6794,5294 6794,5044 6544,5044 Z"/>
 <path fill="rgb(0,69,134)" stroke="none" d="M 8015,4764 L 8015,5014 8265,5014 8265,4764 8015,4764 Z"/>
 <path fill="none" stroke="rgb(0,69,134)" stroke-linejoin="round" d="M 8015,4764 L 8015,5014 8265,5014 8265,4764 8015,4764 Z"/>
 <path fill="rgb(0,69,134)" stroke="none" d="M 9487,2672 L 9487,2922 9737,2922 9737,2672 9487,2672 Z"/>
 <path fill="none" stroke="rgb(0,69,134)" stroke-linejoin="round" d="M 9487,2672 L 9487,2922 9737,2922 9737,2672 9487,2672 Z"/>
 <path fill="none" stroke="rgb(120,3,115)" stroke-linejoin="round" d="M 3725,7516 L 9612,2070"/>
 <path fill="none" stroke="rgb(255,66,14)" stroke-linejoin="round" d="M 3725,7521 L 9612,1885"/>
 <path fill="none" stroke="rgb(0,69,134)" stroke-linejoin="round" d="M 3725,7460 L 9612,3152"/>
 <text class="TextShape"><tspan class="TextParagraph" font-family="Liberation Sans, sans-serif" font-size="353px" font-weight="400"><tspan class="TextPosition" x="2159" y="8714"><tspan fill="rgb(0,0,0)" stroke="none">0</tspan></tspan></tspan></text>
 <text class="TextShape"><tspan class="TextParagraph" font-family="Liberation Sans, sans-serif" font-size="353px" font-weight="400"><tspan class="TextPosition" x="3631" y="8714"><tspan fill="rgb(0,0,0)" stroke="none">1</tspan></tspan></tspan></text>
 <text class="TextShape"><tspan class="TextParagraph" font-family="Liberation Sans, sans-serif" font-size="353px" font-weight="400"><tspan class="TextPosition" x="5103" y="8714"><tspan fill="rgb(0,0,0)" stroke="none">2</tspan></tspan></tspan></text>
 <text class="TextShape"><tspan class="TextParagraph" font-family="Liberation Sans, sans-serif" font-size="353px" font-weight="400"><tspan class="TextPosition" x="6575" y="8714"><tspan fill="rgb(0,0,0)" stroke="none">3</tspan></tspan></tspan></text>
 <text class="TextShape"><tspan class="TextParagraph" font-family="Liberation Sans, sans-serif" font-size="353px" font-weight="400"><tspan class="TextPosition" x="8047" y="8714"><tspan fill="rgb(0,0,0)" stroke="none">4</tspan></tspan></tspan></text>
 <text class="TextShape"><tspan class="TextParagraph" font-family="Liberation Sans, sans-serif" font-size="353px" font-weight="400"><tspan class="TextPosition" x="9519" y="8714"><tspan fill="rgb(0,0,0)" stroke="none">5</tspan></tspan></tspan></text>
 <text class="TextShape"><tspan class="TextParagraph" font-family="Liberation Sans, sans-serif" font-size="353px" font-weight="400"><tspan class="TextPosition" x="10991" y="8714"><tspan fill="rgb(0,0,0)" stroke="none">6</tspan></tspan></tspan></text>
 <text class="TextShape"><tspan class="TextParagraph" font-family="Liberation Sans, sans-serif" font-size="353px" font-weight="400"><tspan class="TextPosition" x="1816" y="8265"><tspan fill="rgb(0,0,0)" stroke="none">0</tspan></tspan></tspan></text>
 <text class="TextShape"><tspan class="TextParagraph" font-family="Liberation Sans, sans-serif" font-size="353px" font-weight="400"><tspan class="TextPosition" x="1335" y="7598"><tspan fill="rgb(0,0,0)" stroke="none">0,05</tspan></tspan></tspan></text>
 <text class="TextShape"><tspan class="TextParagraph" font-family="Liberation Sans, sans-serif" font-size="353px" font-weight="400"><tspan class="TextPosition" x="1522" y="6931"><tspan fill="rgb(0,0,0)" stroke="none">0,1</tspan></tspan></tspan></text>
 <text class="TextShape"><tspan class="TextParagraph" font-family="Liberation Sans, sans-serif" font-size="353px" font-weight="400"><tspan class="TextPosition" x="1335" y="6265"><tspan fill="rgb(0,0,0)" stroke="none">0,15</tspan></tspan></tspan></text>
 <text class="TextShape"><tspan class="TextParagraph" font-family="Liberation Sans, sans-serif" font-size="353px" font-weight="400"><tspan class="TextPosition" x="1522" y="5598"><tspan fill="rgb(0,0,0)" stroke="none">0,2</tspan></tspan></tspan></text>
 <text class="TextShape"><tspan class="TextParagraph" font-family="Liberation Sans, sans-serif" font-size="353px" font-weight="400"><tspan class="TextPosition" x="1335" y="4932"><tspan fill="rgb(0,0,0)" stroke="none">0,25</tspan></tspan></tspan></text>
 <text class="TextShape"><tspan class="TextParagraph" font-family="Liberation Sans, sans-serif" font-size="353px" font-weight="400"><tspan class="TextPosition" x="1522" y="4265"><tspan fill="rgb(0,0,0)" stroke="none">0,3</tspan></tspan></tspan></text>
 <text class="TextShape"><tspan class="TextParagraph" font-family="Liberation Sans, sans-serif" font-size="353px" font-weight="400"><tspan class="TextPosition" x="1335" y="3598"><tspan fill="rgb(0,0,0)" stroke="none">0,35</tspan></tspan></tspan></text>
 <text class="TextShape"><tspan class="TextParagraph" font-family="Liberation Sans, sans-serif" font-size="353px" font-weight="400"><tspan class="TextPosition" x="1522" y="2932"><tspan fill="rgb(0,0,0)" stroke="none">0,4</tspan></tspan></tspan></text>
 <text class="TextShape"><tspan class="TextParagraph" font-family="Liberation Sans, sans-serif" font-size="353px" font-weight="400"><tspan class="TextPosition" x="1335" y="2265"><tspan fill="rgb(0,0,0)" stroke="none">0,45</tspan></tspan></tspan></text>
 <text class="TextShape"><tspan class="TextParagraph" font-family="Liberation Sans, sans-serif" font-size="353px" font-weight="400"><tspan class="TextPosition" x="1522" y="1599"><tspan fill="rgb(0,0,0)" stroke="none">0,5</tspan></tspan></tspan></text>
 <text class="TextShape"><tspan class="TextParagraph" font-family="Liberation Sans, sans-serif" font-size="459px" font-weight="400"><tspan class="TextPosition" x="4376" y="853"><tspan fill="rgb(0,0,0)" stroke="none">Statické charakterisiky průtokoměrů</tspan></tspan></tspan></text>
 <path fill="rgb(0,69,134)" stroke="none" d="M 11908,3126 L 11908,3337 12119,3337 12119,3126 11908,3126 Z"/>
 <path fill="none" stroke="rgb(0,69,134)" stroke-linejoin="round" d="M 11908,3126 L 11908,3337 12119,3337 12119,3126 11908,3126 Z"/>
 <path fill="none" stroke="rgb(0,69,134)" stroke-linejoin="round" d="M 11614,3733 L 12414,3733"/>
 <path fill="rgb(255,66,14)" stroke="none" d="M 11908,4235 L 12014,4341 12119,4235 12014,4130 11908,4235 Z"/>
 <path fill="none" stroke="rgb(255,66,14)" stroke-linejoin="round" d="M 11908,4235 L 12014,4341 12119,4235 12014,4130 11908,4235 Z"/>
 <path fill="none" stroke="rgb(255,66,14)" stroke-linejoin="round" d="M 11614,4736 L 12414,4736"/>
 <path fill="rgb(120,3,115)" stroke="none" d="M 11908,5133 L 12014,5344 12119,5133 11908,5133 Z"/>
 <path fill="none" stroke="rgb(120,3,115)" stroke-linejoin="round" d="M 11908,5133 L 12014,5344 12119,5133 11908,5133 Z"/>
 <path fill="none" stroke="rgb(120,3,115)" stroke-linejoin="round" d="M 11614,5740 L 12414,5740"/>
 <text class="TextShape"><tspan class="TextParagraph" font-family="Liberation Sans, sans-serif" font-size="353px" font-weight="400"><tspan class="TextPosition" x="12514" y="3352"><tspan fill="rgb(0,0,0)" stroke="none">Q=Q(t)</tspan></tspan></tspan></text>
 <text class="TextShape"><tspan class="TextParagraph" font-family="Liberation Sans, sans-serif" font-size="353px" font-weight="400"><tspan class="TextPosition" x="12514" y="3854"><tspan fill="rgb(0,0,0)" stroke="none">Lineární (Q=Q(t))</tspan></tspan></tspan></text>
 <text class="TextShape"><tspan class="TextParagraph" font-family="Liberation Sans, sans-serif" font-size="353px" font-weight="400"><tspan class="TextPosition" x="12514" y="4356"><tspan fill="rgb(0,0,0)" stroke="none">Q=Q(Q_v)</tspan></tspan></tspan></text>
 <text class="TextShape"><tspan class="TextParagraph" font-family="Liberation Sans, sans-serif" font-size="353px" font-weight="400"><tspan class="TextPosition" x="12514" y="4857"><tspan fill="rgb(0,0,0)" stroke="none">Lineární (Q=Q(Q_v))</tspan></tspan></tspan></text>
 <text class="TextShape"><tspan class="TextParagraph" font-family="Liberation Sans, sans-serif" font-size="353px" font-weight="400"><tspan class="TextPosition" x="12514" y="5359"><tspan fill="rgb(0,0,0)" stroke="none">Q=Q(f)</tspan></tspan></tspan></text>
 <text class="TextShape"><tspan class="TextParagraph" font-family="Liberation Sans, sans-serif" font-size="353px" font-weight="400"><tspan class="TextPosition" x="12514" y="5861"><tspan fill="rgb(0,0,0)" stroke="none">Lineární (Q=Q(f))</tspan></tspan></tspan></text>
 <text class="TextShape" transform="rotate(-90 840 5330)"><tspan class="TextParagraph" font-family="Liberation Sans, sans-serif" font-size="318px" font-weight="400"><tspan class="TextPosition" x="840" y="5330"><tspan fill="rgb(0,0,0)" stroke="none">kg/s</tspan></tspan></tspan></text>
</svg>